00:00:00,28.0689482614,8.28107198079e-07
00:00:00.300000,22.1125370929,2.64247258504e-07
00:00:00.600000,-28.0689482614,1.35294596354e-05
00:00:00.900000,28.0689482614,4.78744506836e-06
00:00:01.200000,-28.0689482614,4.69843546549e-06
00:00:01.500000,-28.0689482614,1.14250183105e-05
00:00:01.800000,-28.0689482614,2.36352284749e-06
00:00:02.100000,-28.0689482614,9.30150349935e-06
00:00:02.400000,-28.0689482614,1.14679336548e-06
00:00:02.700000,-10.8485441683,1.02718671163e-07
00:00:03,0.0,1.64906183879e-07
00:00:03.300000,-5.39990990183,1.39792760213e-06
00:00:03.600000,-5.39990990183,9.25064086914e-07
00:00:03.900000,-5.39990990183,7.70489374797e-07
00:00:04.200000,-5.39990990183,7.10805257161e-06
00:00:04.500000,-22.1125370929,8.1459681193e-07
00:00:04.800000,-5.39990990183,5.55912653605e-07
00:00:05.100000,22.1125370929,4.37418619792e-06
00:00:05.400000,22.1125370929,2.9977162679e-06
00:00:05.700000,22.1125370929,2.6273727417e-06
00:00:06,22.1125370929,4.1675567627e-06
00:00:06.300000,22.1125370929,1.75793965658e-06
00:00:06.600000,22.1125370929,2.35716501872e-06
00:00:06.900000,-22.1125370929,3.90688578288e-06
00:00:07.200000,-28.0689482614,4.82241312663e-06
00:00:07.500000,-28.0689482614,6.103515625e-06
00:00:07.800000,-28.0689482614,2.53200531006e-06
00:00:08.100000,-28.0689482614,3.17255655924e-06
00:00:08.400000,-5.39990990183,1.89463297526e-06
00:00:08.700000,-5.39990990183,3.97165616353e-07
00:00:09,-5.39990990183,7.53402709961e-07
00:00:09.300000,-5.39990990183,8.45591227214e-07
00:00:09.600000,-5.39990990183,2.228418986e-06
00:00:09.900000,-5.39990990183,7.06513722738e-07
00:00:10.200000,-5.39990990183,9.64005788167e-07
00:00:10.500000,22.1125370929,1.30335489909e-06
00:00:10.800000,22.1125370929,6.48816426595e-06
00:00:11.100000,22.1125370929,2.08536783854e-06
00:00:11.400000,22.1125370929,2.07901000977e-06
00:00:11.700000,22.1125370929,7.34329223633e-07
00:00:12,22.1125370929,6.35782877604e-07
00:00:12.300000,-28.0689482614,1.06652577718e-06
00:00:12.600000,-28.0689482614,3.88463338216e-06
00:00:12.900000,-22.1125370929,3.00884246826e-06
00:00:13.200000,-22.1125370929,6.51677449544e-06
00:00:13.500000,-22.1125370929,2.38577524821e-06
00:00:13.800000,-22.1125370929,4.99089558919e-06
00:00:14.100000,5.39990990183,2.54114468892e-07
00:00:14.400000,-5.39990990183,1.10864639282e-06
00:00:14.700000,-5.39990990183,6.75519307454e-07
00:00:15,-5.39990990183,6.41743342082e-07
00:00:15.300000,-5.39990990183,2.69095102946e-06
00:00:15.600000,16.3987330124,3.26156616211e-06
00:00:15.900000,48.8382071392,1.31130218506e-07
00:00:16.200000,41.2043996207,1.4990568161e-07
