00:00:00,-16.3987330124,6.39915466309e-06
00:00:00.300000,-16.3987330124,1.58564249674e-05
00:00:00.600000,-16.3987330124,1.11961364746e-05
00:00:00.900000,70.2316050689,2.58763631185e-06
00:00:01.200000,-5.39990990183,2.50736872355e-07
00:00:01.500000,48.8382071392,5.16510009766e-05
00:00:01.800000,22.1125370929,1.08083089193e-06
00:00:02.100000,22.1125370929,8.66750876109e-08
00:00:02.400000,22.1125370929,5.47091166178e-06
00:00:02.700000,28.0689482614,5.02904256185e-06
00:00:03,0.0,1.15235646566e-07
00:00:03.300000,-10.8485441683,4.60624694824e-06
00:00:03.600000,-10.8485441683,5.36092122396e-05
00:00:03.900000,0.0,7.58568445841e-07
00:00:04.200000,-16.3987330124,1.52206420898e-05
00:00:04.500000,-5.39990990183,9.67661539714e-06
00:00:04.800000,-16.3987330124,2.62451171875e-05
00:00:05.100000,-10.8485441683,6.28471374512e-06
00:00:05.400000,22.1125370929,3.18090120951e-07
00:00:05.700000,16.3987330124,2.4782816569e-05
00:00:06,22.1125370929,2.4528503418e-05
00:00:06.300000,22.1125370929,2.94494628906e-05
00:00:06.600000,22.1125370929,1.07447306315e-05
00:00:06.900000,16.3987330124,1.26266479492e-05
00:00:07.200000,16.3987330124,2.01543172201e-06
00:00:07.500000,16.3987330124,1.08846028646e-05
00:00:07.800000,10.8485441683,7.75257746379e-07
00:00:08.100000,16.3987330124,8.52843125661e-08
00:00:08.400000,16.3987330124,8.225440979e-08
00:00:08.700000,-16.3987330124,1.82596842448e-05
00:00:09,-16.3987330124,5.55928548177e-05
00:00:09.300000,-16.3987330124,6.70878092448e-05
00:00:09.600000,-16.3987330124,5.44230143229e-05
00:00:09.900000,16.3987330124,1.28809611003e-05
00:00:10.200000,16.3987330124,1.58182779948e-05
00:00:10.500000,10.8485441683,7.34329223633e-06
00:00:10.800000,10.8485441683,6.71048959096e-08
00:00:11.100000,-16.3987330124,4.83512878418e-06
00:00:11.400000,-16.3987330124,3.81469726562e-05
00:00:11.700000,-16.3987330124,6.2001546224e-05
00:00:12,0.0,1.29699707031e-05
00:00:12.300000,70.2316050689,3.79689534505e-05
00:00:12.600000,10.8485441683,8.04901123047e-06
00:00:12.900000,16.3987330124,8.12530517578e-06
00:00:13.200000,16.3987330124,2.82764434814e-06
00:00:13.500000,22.1125370929,6.18616739909e-06
00:00:13.800000,10.8485441683,1.8056233724e-06
00:00:14.100000,16.3987330124,2.46167182922e-07
00:00:14.400000,16.3987330124,1.20004018148e-07
00:00:14.700000,16.3987330124,2.16960906982e-07
00:00:15,16.3987330124,6.41345977783e-07
00:00:15.300000,16.3987330124,6.49293263753e-07
00:00:15.600000,10.8485441683,1.09573205312e-07
00:00:15.900000,-16.3987330124,3.92278035482e-06
00:00:16.200000,-16.3987330124,4.63612874349e-05
00:00:16.500000,-16.3987330124,5.2490234375e-05
00:00:16.800000,-16.3987330124,7.67517089844e-05
00:00:17.100000,-16.3987330124,3.62396240234e-05
00:00:17.400000,-16.3987330124,2.00017293294e-05
00:00:17.700000,-16.3987330124,2.28500366211e-05
00:00:18,-16.3987330124,1.01153055827e-05
00:00:18.300000,-16.3987330124,6.66936238607e-06
00:00:18.600000,16.3987330124,7.64131546021e-07
00:00:18.900000,16.3987330124,1.1412302653e-05
00:00:19.200000,16.3987330124,2.00780232747e-05
00:00:19.500000,16.3987330124,1.58055623372e-05
00:00:19.800000,16.3987330124,6.4442952474e-05
00:00:20.100000,16.3987330124,2.75293986003e-06
00:00:20.400000,16.3987330124,2.50140825907e-07
00:00:20.700000,10.8485441683,1.10816955566e-05
00:00:21,10.8485441683,5.55356343587e-06
00:00:21.300000,16.3987330124,2.05357869466e-05
00:00:21.600000,16.3987330124,2.44394938151e-05
00:00:21.900000,0.0,2.22126642863e-07
00:00:22.200000,0.0,2.56051619848e-08
00:00:22.500000,-16.3987330124,6.02213541667e-05
00:00:22.800000,-5.39990990183,4.47909037272e-06
00:00:23.100000,5.39990990183,3.12179327011e-08
00:00:23.400000,0.0,3.38008006414e-08
00:00:23.700000,16.3987330124,4.87263997396e-05
00:00:24,16.3987330124,1.02233886719e-05
00:00:24.300000,16.3987330124,1.49281819661e-05
00:00:24.600000,16.3987330124,6.43920898437e-05
00:00:24.900000,16.3987330124,3.27428181966e-06
00:00:25.200000,-16.3987330124,1.46726767222e-07
00:00:25.500000,10.8485441683,4.48354085286e-05
00:00:25.800000,-16.3987330124,0.000170389811198
00:00:26.100000,10.8485441683,5.78244527181e-06
00:00:26.400000,10.8485441683,6.83085123698e-05
00:00:26.700000,10.8485441683,8.64664713542e-06
00:00:27,10.8485441683,8.50359598796e-08
00:00:27.300000,-16.3987330124,7.76350498199e-08
00:00:27.600000,22.1125370929,2.43028004964e-06
00:00:27.900000,22.1125370929,4.28199768066e-06
00:00:28.200000,22.1125370929,1.13169352214e-06
00:00:28.500000,-16.3987330124,1.52349472046e-06
00:00:28.800000,16.3987330124,4.00145848592e-07
00:00:29.100000,10.8485441683,1.83582305908e-07
00:00:29.400000,16.3987330124,7.87734985352e-06
00:00:29.700000,16.3987330124,4.00543212891e-06
00:00:30,10.8485441683,3.3925374349e-05
00:00:30.300000,10.8485441683,1.44068400065e-05
00:00:30.600000,10.8485441683,7.11441040039e-06
00:00:30.900000,10.8485441683,8.28107198079e-07
00:00:31.200000,0.0,2.31837232908e-08
00:00:31.500000,0.0,2.38915284475e-08
00:00:31.800000,70.2316050689,1.5017191569e-05
00:00:32.100000,70.2316050689,1.23469034831e-05
00:00:32.400000,-5.39990990183,1.1134147644e-06
00:00:32.700000,10.8485441683,8.51849714915e-08
00:00:33,16.3987330124,7.45554765066e-08
00:00:33.300000,22.1125370929,2.39562988281e-05
00:00:33.600000,28.0689482614,1.4394124349e-05
00:00:33.900000,0.0,8.0664952596e-08
00:00:34.200000,-16.3987330124,8.40504964193e-06
00:00:34.500000,-16.3987330124,5.63557942708e-05
00:00:34.800000,-16.3987330124,3.81668408712e-07
00:00:35.100000,41.2043996207,5.68389892578e-06
00:00:35.400000,34.377329791,6.35464986165e-06
00:00:35.700000,28.0689482614,2.77964274089e-05
00:00:36,28.0689482614,9.78469848633e-06
00:00:36.300000,28.0689482614,3.88145446777e-06
00:00:36.600000,34.377329791,1.04713439941e-05
00:00:36.900000,34.377329791,6.18934631348e-06
00:00:37.200000,16.3987330124,1.71661376953e-06
00:00:37.500000,10.8485441683,3.9021174113e-07
00:00:37.800000,16.3987330124,8.34465026855e-07
00:00:38.100000,22.1125370929,1.33514404297e-05
00:00:38.400000,28.0689482614,2.45157877604e-05
00:00:38.700000,28.0689482614,2.50180562337e-06
00:00:39,41.2043996207,1.16328398387e-07
00:00:39.300000,41.2043996207,4.79618708293e-07
00:00:39.600000,57.8826244378,2.57174173991e-06
00:00:39.900000,-5.39990990183,1.9907951355e-07
00:00:40.200000,70.2316050689,9.53674316406e-06
00:00:40.500000,41.2043996207,2.19090779622e-05
00:00:40.800000,0.0,7.54674275716e-06
00:00:41.100000,-5.39990990183,3.80277633667e-07
00:00:41.400000,-5.39990990183,3.21467717489e-07
00:00:41.700000,-5.39990990183,4.96705373128e-07
00:00:42,-5.39990990183,2.79267628988e-06
00:00:42.300000,-5.39990990183,4.32014465332e-06
00:00:42.600000,-16.3987330124,8.16980997721e-06
00:00:42.900000,-5.39990990183,1.67592366536e-05
00:00:43.200000,-16.3987330124,4.47829564412e-07
00:00:43.500000,0.0,1.75933043162e-07
00:00:43.800000,-16.3987330124,5.50587972005e-06
00:00:44.100000,-16.3987330124,8.60214233398e-06
00:00:44.400000,-16.3987330124,1.3173421224e-05
00:00:44.700000,-16.3987330124,2.64167785645e-06
00:00:45,-16.3987330124,9.59237416585e-07
00:00:45.300000,-16.3987330124,1.55170758565e-07
